[
  {
    "phoneName": "AQUARIS X2 PRO",
    "phoneLink": "https://www.bq.com/en/support/aquaris-x2-pro/support-sheet",
    "phoneImage": "https:////storage.googleapis.com/bqcom15.statics.bq.com/prod/images/310_310/1/c/8/c/1c8cb24165cdac8b82b77964590611e5e18b8016.jpg",
    "phoneROMLinks": [
      "https://storage.googleapis.com/support-files.bq.com/BQ%20Firmware%20Flash%20Tool%205-Customer.zip",
      "https://storage.googleapis.com/otas/2018/Smartphones/Aquaris_X2_PRO/Q/3.1.2/3.1.2_20200715-1428-zangyapro_bq-user-467-Fastboot-FW.zip",
      "https://storage.googleapis.com/otas/2018/Smartphones/Aquaris_X2_PRO/Q/3.1.1/3.1.1_20200629-1046-zangyapro_bq-user-437-Fastboot-FW.zip",
      "https://storage.googleapis.com/otas/2018/Smartphones/Aquaris_X2_PRO/Q/3.1.0/3.1.0_20200514-1710-zangyapro_bq-user-375-Fastboot-FW.zip",
      "https://storage.googleapis.com/otas/2018/Smartphones/Aquaris_X2_PRO/Pie/2.3.9/2.3.9_20200511-1446-zangyapro_bq-user-1340-FW.zip",
      "https://storage.googleapis.com/otas/2018/Smartphones/Aquaris_X2_PRO/Pie/2.3.8/2.3.8_20200320-1418-zangyapro_bq-user-1289-Fastboot-FW.zip",
      "https://storage.googleapis.com/otas/2018/Smartphones/Aquaris_X2_PRO/Pie/2.3.7/2.3.7_20200225-1604-zangyapro_bq-user-1260-Fastboot-FW.zip",
      "https://storage.googleapis.com/otas/2018/Smartphones/Aquaris_X2_PRO/Pie/2.3.6/2.3.6_20200124-1346-zangyapro_bq-user-1221-Fastboot-FW.zip",
      "https://storage.googleapis.com/otas/2018/Smartphones/Aquaris_X2_PRO/Pie/2.3.5/2.3.5_20200103-1028-zangyapro_bq-user-1192-Fastboot-FW.zip",
      "https://storage.googleapis.com/otas/2018/Smartphones/Aquaris_X2_PRO/Pie/2.3.4/2.3.4_20191202-0942-zangyapro_bq-user-1156-Fastboot-FW.zip",
      "https://storage.googleapis.com/otas/2018/Smartphones/Aquaris_X2_PRO/Pie/2.3.3/2.3.3_20191107-1753-zangyapro_bq-user-1125-Fastboot-FW.zip",
      "https://storage.googleapis.com/otas/2018/Smartphones/Aquaris_X2_PRO/Pie/2.3.1/2.3.1_20191017-1555-zangyapro_bq-user-1064-Fastboot-FW.zip",
      "https://storage.googleapis.com/otas/2018/Smartphones/Aquaris_X2_PRO/Pie/2.3.0/2.3.0_20191011-1351-zangyapro_bq-user-1044-Fastboot-FW.zip",
      "https://storage.googleapis.com/otas/2018/Smartphones/Aquaris_X2_PRO/Pie/2.2.2/2.2.2_20190809-1130-zangyapro_bq-user-920-Fastboot-FW.zip",
      "https://storage.googleapis.com/otas/2018/Smartphones/Aquaris_X2_PRO/Pie/2.2.1/2.2.1_20190626-0950-zangyapro_bq-user-760-Fastboot-FW.zip",
      "https://storage.googleapis.com/otas/2018/Smartphones/Aquaris_X2_PRO/Pie/2.2.0/2.2.0_20190612-1447-zangyapro_bq-user-689-Fastboot-FW.zip",
      "https://storage.googleapis.com/otas/2018/Smartphones/Aquaris_X2_PRO/Pie/2.0.2/2.0.2_20190519-1445-zangyapro_bq-user-537-Fastboot-FW.zip",
      "https://storage.googleapis.com/otas/2018/Smartphones/Aquaris_X2_PRO/Pie/2.0.1/2.0.1_20190417-1213-zangyapro_bq-user-390-Fastboot-FW.zip",
      "https://storage.googleapis.com/otas/2018/Smartphones/Aquaris_X2_PRO/Pie/2.0.0/2.0.0_20190322-1025-zangyapro_bq-user-298-Fastboot-FW.zip",
      "https://storage.googleapis.com/otas/2018/Smartphones/Aquaris_X2_PRO/1.7.3/1.7.3_20190220-1449-zangyapro_bq-user-1335-Fastboot-FW.zip",
      "https://storage.googleapis.com/otas/2018/Smartphones/Aquaris_X2_PRO/1.7.2/1.7.2_20190115-1829-zangyapro_bq-user-1176-Fastboot-FW.zip",
      "https://storage.googleapis.com/otas/2018/Smartphones/Aquaris_X2_PRO/1.7.1/1.7.1_20181218-0944-zangyapro_bq-user-1050-Fastboot-FW.zip",
      "https://storage.googleapis.com/otas/2018/Smartphones/Aquaris_X2_PRO/1.7.0/1.7.0_20181211-1538-zangyapro_bq-user-1011-Fastboot-FW.zip",
      "https://storage.googleapis.com/otas/2018/Smartphones/Aquaris_X2_PRO/1.6.0/1.6.0_20181121-1814-zangyapro_bq-user-923-Fastboot-FW.zip",
      "https://storage.googleapis.com/otas/2018/Smartphones/Aquaris_X2_PRO/1.5.0/1.5.0_20181019-1223-zangyapro_bq-user-796-Fastboot-FW.zip",
      "https://storage.googleapis.com/otas/2018/Smartphones/Aquaris_X2_PRO/1.4.0/1.4.0_20180831-1218-zangyapro_bq-user-650-Fastboot-FW.zip",
      "https://storage.googleapis.com/otas/2018/Smartphones/Aquaris_X2_PRO/1.3.0/1.3.0_20180730-1100-zangyapro_bq-user-588-Fastboot-FW.zip",
      "https://storage.googleapis.com/otas/2018/Smartphones/Aquaris_X2_PRO/1.2.2/1.2.2_20180611-1702-zangyapro_bq-user-485-Fastboot-FW.zip",
      "https://storage.googleapis.com/support-files.bq.com/Fondo_pantalla_X2_Pro.zip"
    ]
  },
  {
    "phoneName": "AQUARIS X2",
    "phoneLink": "https://www.bq.com/en/support/aquaris-x2/support-sheet",
    "phoneImage": "https:////storage.googleapis.com/bqcom15.statics.bq.com/prod/images/310_310/a/8/6/6/a866ecd42fbe58609e58d84f56522f7fb6216b2a.jpg",
    "phoneROMLinks": [
      "https://storage.googleapis.com/support-files.bq.com/BQ%20Firmware%20Flash%20Tool%205-Customer.zip",
      "https://storage.googleapis.com/otas/2018/Smartphones/Aquaris_X2/Q/3.1.2/3.1.2_20200715-1423-zangya_bq-user-466-Fastboot-FW.zip",
      "https://storage.googleapis.com/otas/2018/Smartphones/Aquaris_X2/Q/3.1.1/3.1.1_20200629-1045-zangya_bq-user-436-Fastboot-FW.zip",
      "https://storage.googleapis.com/otas/2018/Smartphones/Aquaris_X2/Q/3.1.0/3.1.0_20200514-1706-zangya_bq-user-374-Fastboot-FW.zip",
      "https://storage.googleapis.com/otas/2018/Smartphones/Aquaris_X2/Pie/2.3.9/2.3.9_20200511-1450-zangya_bq-user-1342-FW.zip",
      "https://storage.googleapis.com/otas/2018/Smartphones/Aquaris_X2/Pie/2.3.8/2.3.8_20200320-1413-zangya_bq-user-1288-Fastboot-FW.zip",
      "https://storage.googleapis.com/otas/2018/Smartphones/Aquaris_X2/Pie/2.3.7/2.3.7_20200225-1603-zangya_bq-user-1259-Fastboot-FW.zip",
      "https://storage.googleapis.com/otas/2018/Smartphones/Aquaris_X2/Pie/2.3.6/2.3.6_20200124-1345-zangya_bq-user-1220-Fastboot-FW.zip",
      "https://storage.googleapis.com/otas/2018/Smartphones/Aquaris_X2/Pie/2.3.5/2.3.5_20200103-1027-zangya_bq-user-1191-Fastboot-FW.zip",
      "https://storage.googleapis.com/otas/2018/Smartphones/Aquaris_X2/Pie/2.3.4/2.3.4_20191202-0939-zangya_bq-user-1155-Fastboot-FW.zip",
      "https://storage.googleapis.com/otas/2018/Smartphones/Aquaris_X2/Pie/2.3.3/2.3.3_20191107-1752-zangya_bq-user-1124-Fastboot-FW.zip",
      "https://storage.googleapis.com/otas/2018/Smartphones/Aquaris_X2/Pie/2.3.1/2.3.1_20191017-1556-zangya_bq-user-1065-Fastboot-FW.zip",
      "https://storage.googleapis.com/otas/2018/Smartphones/Aquaris_X2/Pie/2.3.0/2.3.0_20191011-1354-zangya_bq-user-1045-Fastboot-FW.zip",
      "https://storage.googleapis.com/otas/2018/Smartphones/Aquaris_X2/Pie/2.2.2/2.2.2_20190809-1129-zangya_bq-user-919-Fastboot-FW.zip",
      "https://storage.googleapis.com/otas/2018/Smartphones/Aquaris_X2/Pie/2.2.1/2.2.1_20190626-0949-zangya_bq-user-759-Fastboot-FW.zip",
      "https://storage.googleapis.com/otas/2018/Smartphones/Aquaris_X2/Pie/2.2.0/2.2.0_20190607-1200-zangya_bq-user-657-Fastboot-FW.zip",
      "https://storage.googleapis.com/otas/2018/Smartphones/Aquaris_X2/Pie/2.0.2/2.0.2_20190519-1443-zangya_bq-user-544-Fastboot-FW.zip",
      "https://storage.googleapis.com/otas/2018/Smartphones/Aquaris_X2/Pie/2.0.1/2.0.1_20190417-1212-zangya_bq-user-389-Fastboot-FW.zip",
      "https://storage.googleapis.com/otas/2018/Smartphones/Aquaris_X2/Pie/2.0.0/2.0.0_20190322-1026-zangya_bq-user-300-Fastboot-FW.zip",
      "https://storage.googleapis.com/otas/2018/Smartphones/Aquaris_X2/1.7.3/1.7.3_20190220-1449-zangya_bq-user-1334-Fastboot-FW.zip",
      "https://storage.googleapis.com/otas/2018/Smartphones/Aquaris_X2/1.7.2/1.7.2_20190115-1830-zangya_bq-user-1177-Fastboot-FW.zip",
      "https://storage.googleapis.com/otas/2018/Smartphones/Aquaris_X2/1.7.1/1.7.1_20181218-0944-zangya_bq-user-1049-Fastboot-FW.zip",
      "https://storage.googleapis.com/otas/2018/Smartphones/Aquaris_X2/1.7.0/1.7.0_20181210-1404-zangya_bq-user-1004-Fastboot-FW.zip",
      "https://storage.googleapis.com/otas/2018/Smartphones/Aquaris_X2/1.6.0/1.6.0_20181121-1813-zangya_bq-user-922-Fastboot-FW.zip",
      "https://storage.googleapis.com/otas/2018/Smartphones/Aquaris_X2/1.5.0/1.5.0_20181019-1222-zangya_bq-user-795-Fastboot-FW.zip",
      "https://storage.googleapis.com/otas/2018/Smartphones/Aquaris_X2/1.4.0/1.4.0_20180830-1036-zangya_bq-user-645-Fastboot-FW.zip",
      "https://storage.googleapis.com/otas/2018/Smartphones/Aquaris_X2/1.3.0/1.3.0_20180730-1059-zangya_bq-user-587-Fastboot-FW.zip",
      "https://storage.googleapis.com/otas/2018/Smartphones/Aquaris_X2/1.2.2/1.2.2_20180611-1702-zangya_bq-user-484-Fastboot-FW.zip",
      "https://storage.googleapis.com/otas/2018/Smartphones/Aquaris_X2/1.2.1/1.2.1_20180604-2012-zangya_bq-user-468-Fastboot-FW.zip",
      "https://storage.googleapis.com/otas/2018/Smartphones/Aquaris_X2/1.2.0/1.2.0_20180528-1836-zangya_bq-user-438-Fastboot-FW.zip",
      "https://storage.googleapis.com/support-files.bq.com/Fondo_pantalla_X2.zip"
    ]
  },
  {
    "phoneName": "AQUARIS X PRO",
    "phoneLink": "https://www.bq.com/en/support/aquaris-x-pro/support-sheet",
    "phoneImage": "https:////storage.googleapis.com/bqcom15.statics.bq.com/prod/images/310_310/6/6/e/5/66e5140fcc8f8069cfb25578b69fe8c0efd42887.jpg",
    "phoneROMLinks": [
      "https://storage.googleapis.com/support-files.bq.com/BQ%20Firmware%20Flash%20Tool%205-Customer.zip",
      "https://storage.googleapis.com/otas/2017/Smartphones/Bardock_Pro/OTA_Official/Oreo/2.11.0/2.11.0_20191121-1510-bardockpro_bq-user-2395-Fastboot-FW.zip",
      "https://storage.googleapis.com/otas/2017/Smartphones/Bardock_Pro/OTA_Official/Oreo/2.10.0/2.10.0_20190924-0755-bardockpro_bq-user-2339-Fastboot-FW.zip",
      "https://storage.googleapis.com/otas/2017/Smartphones/Bardock_Pro/OTA_Official/Oreo/2.7.2/2.7.2_20190620-1410-bardockpro_bq-user-2169-Fastboot-FW.zip",
      "https://storage.googleapis.com/otas/2017/Smartphones/Bardock_Pro/OTA_Official/Oreo/2.7.1/2.7.1_20190513-1448-bardockpro_bq-user-2014-Fastboot-FW.zip",
      "https://storage.googleapis.com/otas/2017/Smartphones/Bardock_Pro/OTA_Official/Oreo/2.7.0/2.7.0_20190313-1127-bardockpro_bq-user-1749-Fastboot-FW.zip",
      "https://storage.googleapis.com/otas/2017/Smartphones/Bardock_Pro/OTA_Official/Oreo/2.5.1/2.5.1_20190114-1551-bardockpro_bq-user-1492-Fastboot-FW.zip",
      "https://storage.googleapis.com/otas/2017/Smartphones/Bardock_Pro/OTA_Official/Oreo/2.5.0/2.5.0_20181227-1108-bardockpro_bq-user-1422-Fastboot-FW.zip",
      "https://storage.googleapis.com/otas/2017/Smartphones/Bardock_Pro/OTA_Official/Oreo/2.3.0/2.3.0_20181008-1123-bardockpro_bq-user-1082-Fastboot-FW.zip",
      "https://storage.googleapis.com/otas/2017/Smartphones/Bardock_Pro/OTA_Official/Oreo/2.2.0/2.2.0_20180713-1010-bardockpro_bq-user-717-Fastboot-FW.zip",
      "https://storage.googleapis.com/otas/2017/Smartphones/Bardock_Pro/OTA_Official/Oreo/2.0.0/2.0.0_20180417-1229-bardockpro_bq-user-448-Fastboot-FW.zip",
      "https://storage.googleapis.com/otas/2017/Smartphones/Bardock_Pro/OTA_Official/1.9.0/1.9.0_20180621-2036-bardockpro-user-1437-Fastboot-FW.zip",
      "https://storage.googleapis.com/otas/2017/Smartphones/Bardock_Pro/OTA_Official/1.8.0/1.8.0_20180323-0901-bardockpro-user-1421-Fastboot-FW.zip",
      "https://storage.googleapis.com/otas/2017/Smartphones/Bardock_Pro/OTA_Official/1.7.0/1.7.0_20180306-1150-bardockpro-user-1417-Fastboot-FW.zip",
      "https://storage.googleapis.com/otas/2017/Smartphones/Bardock_Pro/OTA_Official/1.6.0/1.6.0_20180130-1827-bardockpro-user-1379-Fastboot-FW.zip",
      "https://storage.googleapis.com/otas/2017/Smartphones/Bardock_Pro/OTA_Official/1.5.1/1.5.1_20171110-0910-bardockpro-user-1336-Fastboot-FW.zip",
      "https://storage.googleapis.com/otas/2017/Smartphones/Bardock_Pro/OTA_Official/1.4.3/1.4.3_20170809-1111-bardock-user-983-Fastboot-FW.zip",
      "https://storage.googleapis.com/otas/2017/Smartphones/Bardock_Pro/OTA_Official/1.4.0/1.4.0_20170714-1210-bardock-user-763-Fastboot-FW.zip",
      "https://storage.googleapis.com/otas/2017/Smartphones/Bardock_Pro/OTA_Official/1.3.6/1.3.6_20170626-1133-bardock-user-632-Fastboot-FW.zip",
      "https://storage.googleapis.com/otas/2017/Smartphones/Bardock_Pro/OTA_Official/1.3.5_Official/1.3.5_20170620-0532/1.3.5_20170620-0532-bardock-user-594-Fastboot-FW.zip",
      "https://storage.googleapis.com/support-files.bq.com/Fondos_pantalla_Aquaris_X_Pro.zip"
    ]
  },
  {
    "phoneName": "AQUARIS X",
    "phoneLink": "https://www.bq.com/en/support/aquaris-x/support-sheet",
    "phoneImage": "https:////storage.googleapis.com/bqcom15.statics.bq.com/prod/images/310_310/6/1/3/7/6137f52c915f6984a6961fcdc35ebe1224aa74e6.jpg",
    "phoneROMLinks": [
      "https://storage.googleapis.com/support-files.bq.com/BQ%20Firmware%20Flash%20Tool%205-Customer.zip",
      "https://storage.googleapis.com/otas/2017/Smartphones/Bardock/OTA_Official/Oreo/2.11.0/2.11.0_20191121-1509-bardock_bq-user-2394-Fastboot-FW.zip",
      "https://storage.googleapis.com/otas/2017/Smartphones/Bardock/OTA_Official/Oreo/2.10.0/2.10.0_20190924-0756-bardock_bq-user-2340-Fastboot-FW.zip",
      "https://storage.googleapis.com/otas/2017/Smartphones/Bardock/OTA_Official/Oreo/2.7.2/2.7.2_20190620-1409-bardock_bq-user-2168-Fastboot-FW.zip",
      "https://storage.googleapis.com/otas/2017/Smartphones/Bardock/OTA_Official/Oreo/2.7.1/2.7.1_20190513-1447-bardock_bq-user-2015-Fastboot-FW.zip",
      "https://storage.googleapis.com/otas/2017/Smartphones/Bardock/OTA_Official/Oreo/2.7.0/2.7.0_20190313-1126-bardock_bq-user-1748-Fastboot-FW.zip",
      "https://storage.googleapis.com/otas/2017/Smartphones/Bardock/OTA_Official/Oreo/2.5.1/2.5.1_20190114-1549-bardock_bq-user-1491-Fastboot-FW.zip",
      "https://storage.googleapis.com/otas/2017/Smartphones/Bardock/OTA_Official/Oreo/2.5.0/2.5.0_20181227-1107-bardock_bq-user-1421-Fastboot-FW.zip",
      "https://storage.googleapis.com/otas/2017/Smartphones/Bardock/OTA_Official/Oreo/2.3.0/2.3.0_20181008-1122-bardock_bq-user-1080-Fastboot-FW.zip",
      "https://storage.googleapis.com/otas/2017/Smartphones/Bardock/OTA_Official/Oreo/2.2.0/2.2.0_20180717-0830-bardock_bq-user-727-Fastboot-FW.zip",
      "https://storage.googleapis.com/otas/2017/Smartphones/Bardock/OTA_Official/Oreo/2.0.0/2.0.0_20180416-0841-bardock_bq-user-439-Fastboot-FW.zip",
      "https://storage.googleapis.com/otas/2017/Smartphones/Bardock/OTA_Official/1.9.0/1.9.0_20180621-2036-bardock-user-1436-Fastboot-FW.zip",
      "https://storage.googleapis.com/otas/2017/Smartphones/Bardock/OTA_Official/1.8.0/1.8.0_20180326-0803-bardock-user-1422-Fastboot-FW.zip",
      "https://storage.googleapis.com/otas/2017/Smartphones/Bardock/OTA_Official/1.7.0/1.7.0_20180306-1149-bardock-user-1416-Fastboot-FW.zip",
      "https://storage.googleapis.com/otas/2017/Smartphones/Bardock/OTA_Official/1.6.0/1.6.0_20180130-1826-bardock-user-1378-Fastboot-FW.zip",
      "https://storage.googleapis.com/otas/2017/Smartphones/Bardock/OTA_Official/1.5.1/1.5.1_20171110-0909-bardock-user-1335-Fastboot-FW.zip",
      "https://storage.googleapis.com/otas/2017/Smartphones/Bardock/OTA_Official/1.4.3/1.4.3_20170809-0848-bardock-user-982-Fastboot-FW.zip",
      "https://storage.googleapis.com/otas/2017/Smartphones/Bardock/OTA_Official/1.4.0/1.4.0_20170717-0912-bardock-user-771-Fastboot-FW.zip",
      "https://storage.googleapis.com/otas/2017/Smartphones/Bardock/OTA_Official/1.3.5_Official/1.3.5_20170620-0805/1.3.5_20170620-0805-bardock-user-598-Fastboot-FW.zip",
      "https://storage.googleapis.com/support-files.bq.com/Fondos_pantalla_Aquaris_X.zip"
    ]
  },
  {
    "phoneName": "AQUARIS V PLUS",
    "phoneLink": "https://www.bq.com/en/support/aquaris-v-plus/support-sheet",
    "phoneImage": "https:////storage.googleapis.com/bqcom15.statics.bq.com/prod/images/310_310/d/7/3/f/d73fe1bd31a78239a6d08a61e15214d1096c03c0.jpg",
    "phoneROMLinks": [
      "https://storage.googleapis.com/support-files.bq.com/BQ%20Firmware%20Flash%20Tool%205-Customer.zip",
      "https://storage.googleapis.com/otas/2017/Smartphones/Aquaris_VS_Plus/2.2.1/2.2.1_20200109-1514-raditz_s_bq-user-2132-Fastboot-FW.zip",
      "https://storage.googleapis.com/otas/2017/Smartphones/Aquaris_VS_Plus/2.2.0/2.2.0_20191119-1656-raditz_s_bq-user-2054-Fastboot-FW.zip",
      "https://storage.googleapis.com/otas/2017/Smartphones/Aquaris_V_Plus/2.2.0/2.2.0_20191023-1201-raditz_bq-user-2012-Fastboot-FW.zip",
      "https://storage.googleapis.com/otas/2017/Smartphones/Aquaris_VS/2.1.1/2.1.1_20190705-0901-nappa_s_bq-user-1696-Fastboot-FW.zip",
      "https://storage.googleapis.com/otas/2017/Smartphones/Aquaris_V_Plus/2.1.1/2.1.1_20190705-0902-raditz_bq-user-1695-Fastboot-FW.zip",
      "https://storage.googleapis.com/otas/2017/Smartphones/Aquaris_VS_Plus/2.1.0/2.1.0_20190522-1156-raditz_s_bq-user-1447-Fastboot-FW.zip",
      "https://storage.googleapis.com/otas/2017/Smartphones/Aquaris_V_Plus/2.1.0/2.1.0_20190522-1153-raditz_bq-user-1444-Fastboot-FW.zip",
      "https://storage.googleapis.com/otas/2017/Smartphones/Aquaris_VS_Plus/2.0.0/2.0.0_20190314-1451-raditz_s_bq-user-1102-Fastboot-FW.zip",
      "https://storage.googleapis.com/otas/2017/Smartphones/Aquaris_V_Plus/2.0.0/2.0.0_20190314-1148-raditz_bq-user-1099-Fastboot-FW.zip",
      "https://storage.googleapis.com/otas/2017/Smartphones/Aquaris_VS_Plus/Android_N/1.16.0/1.16.0_20190109-1423-raditz_s-user-1742-Fastboot-FW.zip",
      "https://storage.googleapis.com/otas/2017/Smartphones/Aquaris_V_Plus/1.16.0/1.16.0_20190109-1422-raditz-user-1741-Fastboot-FW.zip",
      "https://storage.googleapis.com/otas/2017/Smartphones/Aquaris_VS_Plus/Android_N/1.15.0/1.15.0_20181211-1727-raditz_s-user-1731-Fastboot-FW.zip",
      "https://storage.googleapis.com/otas/2017/Smartphones/Aquaris_V_Plus/1.15.0/1.15.0_20181211-1726-raditz-user-1728-Fastboot-FW.zip",
      "https://storage.googleapis.com/otas/2017/Smartphones/Aquaris_VS_Plus/Android_N/1.14.0/1.14.0_20180911-1914-raditz_s-user-1557-Fastboot-FW.zip",
      "https://storage.googleapis.com/otas/2017/Smartphones/Aquaris_V_Plus/1.14.0/1.14.0_20180829-1716-raditz-user-1514-Fastboot-FW.zip",
      "https://storage.googleapis.com/otas/2017/Smartphones/Aquaris_VS_Plus/Android_N/1.13.0/1.13.0_20180625-1916-raditz_s-user-1305-Fastboot-FW.zip",
      "https://storage.googleapis.com/otas/2017/Smartphones/Aquaris_V_Plus/1.13.0/1.13.0_20180605-1821-raditz-user-1234-Fastboot-FW.zip",
      "https://storage.googleapis.com/otas/2017/Smartphones/Aquaris_V_Plus/1.11.3/1.11.3_20180413-1400-raditz-user-1012-Fastboot-FW.zip",
      "https://storage.googleapis.com/otas/2017/Smartphones/Aquaris_V_Plus/1.11.1/1.11.1_20180228-1359-raditz-user-757-Fastboot-FW.zip",
      "https://storage.googleapis.com/otas/2017/Smartphones/Aquaris_V_Plus/1.10.1/1.10.1_20180206-1819-raditz-user-626-Fastboot-FW.zip",
      "https://storage.googleapis.com/otas/2017/Smartphones/Aquaris_V_Plus/1.9.0/1.9.0_20171124-0948-raditz-user-343-Fastboot-FW.zip",
      "https://storage.googleapis.com/otas/2017/Smartphones/Aquaris_V_Plus/1.8.0/1.8.0_20171011-1220-raditz-user-161-Fastboot-FW.zip",
      "https://storage.googleapis.com/support-files.bq.com/Fondos_pantalla_Aquaris_V_Plus.zip"
    ]
  },
  {
    "phoneName": "AQUARIS V",
    "phoneLink": "https://www.bq.com/en/support/aquaris-v/support-sheet",
    "phoneImage": "https:////storage.googleapis.com/bqcom15.statics.bq.com/prod/images/310_310/4/7/8/a/478adcd34cdeb185fcddcd2bcf357a6c8fb84e60.jpg",
    "phoneROMLinks": [
      "https://storage.googleapis.com/support-files.bq.com/BQ%20Firmware%20Flash%20Tool%205-Customer.zip",
      "https://storage.googleapis.com/otas/2017/Smartphones/Aquaris_VS/2.2.1/2.2.1_20200109-1513-nappa_s_bq-user-2131-Fastboot-FW.zip",
      "https://storage.googleapis.com/otas/2017/Smartphones/Aquaris_VS/2.2.0/2.2.0_20191028-1148-nappa_s_bq-user-2019-Fastboot-FW.zip",
      "https://storage.googleapis.com/otas/2017/Smartphones/Aquaris_V/2.2.0/2.2.0_20191023-1159-nappa_bq-user-2010-Fastboot-FW.zip",
      "https://storage.googleapis.com/otas/2017/Smartphones/Aquaris_VS/2.1.1/2.1.1_20190705-0901-nappa_s_bq-user-1696-Fastboot-FW.zip",
      "https://storage.googleapis.com/otas/2017/Smartphones/Aquaris_V/2.1.1/2.1.1_20190705-0901-nappa_bq-user-1693-Fastboot-FW.zip",
      "https://storage.googleapis.com/otas/2017/Smartphones/Aquaris_VS/2.1.0/2.1.0_20190522-1155-nappa_s_bq-user-1446-Fastboot-FW.zip",
      "https://storage.googleapis.com/otas/2017/Smartphones/Aquaris_V/2.1.0/2.1.0_20190522-1149-nappa_bq-user-1443-Fastboot-FW.zip",
      "https://storage.googleapis.com/otas/2017/Smartphones/Aquaris_VS/2.0.0/2.0.0_20190314-1605-nappa_s_bq-user-1105-Fastboot-FW.zip",
      "https://storage.googleapis.com/otas/2017/Smartphones/Aquaris_V/2.0.0/2.0.0_20190314-1059-nappa_bq-user-1097-Fastboot-FW.zip",
      "https://storage.googleapis.com/otas/2017/Smartphones/Aquaris_VS/1.16.0/1.16.0_20190109-1313-nappa_s-user-1740-Fastboot-FW.zip",
      "https://storage.googleapis.com/otas/2017/Smartphones/Aquaris_V/1.16.0/1.16.0_20190109-1313-nappa-user-1739-Fastboot-FW.zip",
      "https://storage.googleapis.com/otas/2017/Smartphones/Aquaris_VS/1.15.0/1.15.0_20181226-1446-nappa_s-user-1734-Fastboot-FW.zip",
      "https://storage.googleapis.com/otas/2017/Smartphones/Aquaris_V/1.15.0/1.15.0_20181226-1446-nappa-user-1733-Fastboot-FW.zip",
      "https://storage.googleapis.com/otas/2017/Smartphones/Aquaris_VS/1.14.0/1.14.0_20180911-1913-nappa_s-user-1556-Fastboot-FW.zip",
      "https://storage.googleapis.com/otas/2017/Smartphones/Aquaris_V/1.14.0/1.14.0_20180809-0913-nappa-user-1450-Fastboot-FW.zip",
      "https://storage.googleapis.com/otas/2017/Smartphones/Aquaris_VS/1.13.0/1.13.0_20180625-1915-nappa_s-user-1304-Fastboot-FW.zip",
      "https://storage.googleapis.com/otas/2017/Smartphones/Aquaris_V/1.13.0/1.13.0_20180605-1821-nappa-user-1233-Fastboot-FW.zip",
      "https://storage.googleapis.com/otas/2017/Smartphones/Aquaris_V/1.11.3/1.11.3_20180413-1358-nappa-user-1010-Fastboot-FW.zip",
      "https://storage.googleapis.com/otas/2017/Smartphones/Aquaris_V/1.11.1/1.11.1_20180228-1401-nappa-user-759-Fastboot-FW.zip",
      "https://storage.googleapis.com/otas/2017/Smartphones/Aquaris_V/1.10.1/1.10.1_20180206-1816-nappa-user-623-Fastboot-FW.zip",
      "https://storage.googleapis.com/otas/2017/Smartphones/Aquaris_V/1.9.0/1.9.0_20171124-0948-nappa-user-342-Fastboot-FW.zip",
      "https://storage.googleapis.com/otas/2017/Smartphones/Aquaris_V/1.6.2/1.6.2_20170918-1627-nappa-user-58-Fastboot-FW.zip",
      "https://storage.googleapis.com/support-files.bq.com/Fondos_pantalla_Aquaris_V.zip"
    ]
  },
  {
    "phoneName": "AQUARIS C",
    "phoneLink": "https://www.bq.com/en/support/aquaris-c/support-sheet",
    "phoneImage": "https:////storage.googleapis.com/bqcom15.statics.bq.com/prod/images/310_310/f/7/d/4/f7d4886fcd901b34a21af6b92ecee7136a8537cb.jpg",
    "phoneROMLinks": [
      "https://storage.googleapis.com/support-files.bq.com/BQ%20Firmware%20Flash%20Tool%205-Customer.zip",
      "https://storage.googleapis.com/otas/2018/Smartphones/Aquaris_C/1.12.0/1.12.0_20200525-1231-jeice_bq-user-2412-Fastboot-FW.zip",
      "https://storage.googleapis.com/otas/2018/Smartphones/Aquaris_C/1.11.0/1.11.0_20200220-1625-jeice_bq-user-2409-Fastboot-FW.zip",
      "https://storage.googleapis.com/otas/2018/Smartphones/Aquaris_C/1.10.0/1.10.0_20200110-1314-jeice_bq-user-2398-Fastboot-FW.zip",
      "https://storage.googleapis.com/otas/2018/Smartphones/Aquaris_C/1.9.1/1.9.1_20191107-0928-jeice_bq-user-2385-Fastboot-FW.zip",
      "https://storage.googleapis.com/otas/2018/Smartphones/Aquaris_C/1.9.0/1.9.0_20190812-1320-jeice_bq-user-2293-Fastboot-FW.zip",
      "https://storage.googleapis.com/otas/2018/Smartphones/Aquaris_C/1.5.2/1.5.2_20190621-0940-jeice_bq-user-2174-Fastboot-FW.zip",
      "https://storage.googleapis.com/otas/2018/Smartphones/Aquaris_C/1.5.1/1.5.1_20190415-1608-jeice_bq-user-1887-Fastboot-FW.zip",
      "https://storage.googleapis.com/otas/2018/Smartphones/Aquaris_C/1.5.0/1.5.0_20190222-0817-jeice_bq-user-1670-Fastboot-FW.zip",
      "https://storage.googleapis.com/otas/2018/Smartphones/Aquaris_C/1.3.2/1.3.2_20190207-1657-jeice_bq-user-1616-Fastboot-FW.zip",
      "https://storage.googleapis.com/otas/2018/Smartphones/Aquaris_C/1.3.0/1.3.0_20190118-1526-jeice_bq-user-1524-Fastboot-FW.zip",
      "https://storage.googleapis.com/otas/2018/Smartphones/Aquaris_C/1.1.1/1.1.1_20181115-1512-jeice_bq-user-1267-Fastboot-FW.zip",
      "https://storage.googleapis.com/otas/2018/Smartphones/Aquaris_C/1.0.4/1.0.4_20180911-1442-jeice_bq-user-979-Fastboot-FW.zip",
      "https://storage.googleapis.com/support-files.bq.com/Fondos_pantalla_Aquaris_C.zip"
    ]
  },
  {
    "phoneName": "AQUARIS U2",
    "phoneLink": "https://www.bq.com/en/support/aquaris-u2/support-sheet",
    "phoneImage": "https:////storage.googleapis.com/bqcom15.statics.bq.com/prod/images/310_310/7/d/2/e/7d2e839e2b9fd9fa506e9f2d2ed868e61d204a2f.jpg",
    "phoneROMLinks": [
      "https://storage.googleapis.com/support-files.bq.com/BQ%20Firmware%20Flash%20Tool%205-Customer.zip",
      "https://storage.googleapis.com/otas/2017/Smartphones/Aquaris_U2/2.2.0/2.2.0_20191023-1200-yamcha_bq-user-2011-Fastboot-FW.zip",
      "https://storage.googleapis.com/otas/2017/Smartphones/Aquaris_U2/2.1.1/2.1.1_20190705-0903-yamcha_bq-user-1692-Fastboot-FW.zip",
      "https://storage.googleapis.com/otas/2017/Smartphones/Aquaris_U2/2.1.0/2.1.0_20190522-1154-yamcha_bq-user-1445-Fastboot-FW.zip",
      "https://storage.googleapis.com/otas/2017/Smartphones/Aquaris_U2/2.0.0/2.0.0_20190326-1557-yamcha_bq-user-1171-Fastboot-FW.zip",
      "https://storage.googleapis.com/otas/2017/Smartphones/Aquaris_U2/1.16.0/1.16.0_20190109-1424-yamcha-user-1743-Fastboot-FW.zip",
      "https://storage.googleapis.com/otas/2017/Smartphones/Aquaris_U2/1.15.0/1.15.0_20181211-1726-yamcha-user-1727-Fastboot-FW.zip",
      "https://storage.googleapis.com/otas/2017/Smartphones/Aquaris_U2/1.14.0/1.14.0_20180809-0913-yamcha-user-1451-Fastboot-FW.zip",
      "https://storage.googleapis.com/otas/2017/Smartphones/Aquaris_U2/1.13.0/1.13.0_20180606-0917-yamcha-user-1241-Fastboot-FW.zip",
      "https://storage.googleapis.com/otas/2017/Smartphones/Aquaris_U2/1.11.3/1.11.3_20180413-1359-yamcha-user-1011-Fastboot-FW.zip",
      "https://storage.googleapis.com/otas/2017/Smartphones/Aquaris_U2/1.11.2/1.11.2_20180301-1530-yamcha-user-771-Fastboot-FW.zip",
      "https://storage.googleapis.com/otas/2017/Smartphones/Aquaris_U2/1.10.1/1.10.1_20180206-1815-yamcha-user-622-Fastboot-FW.zip",
      "https://storage.googleapis.com/otas/2017/Smartphones/Aquaris_U2/1.10.0/1.10.0_20180131-1650-yamcha-user-586-Fastboot-FW.zip",
      "https://storage.googleapis.com/otas/2017/Smartphones/Aquaris_U2/1.9.0/1.9.0_20171124-0949-yamcha-user-344-Fastboot-FW.zip",
      "https://storage.googleapis.com/otas/2017/Smartphones/Aquaris_U2/1.6.2/1.6.2_20170918-1628-yamcha-user-59-Fastboot-FW.zip",
      "https://storage.googleapis.com/support-files.bq.com/Fondos_pantalla_Aquaris_U2.zip"
    ]
  },
  {
    "phoneName": "AQUARIS U2 LITE",
    "phoneLink": "https://www.bq.com/en/support/aquaris-u2-lite/support-sheet",
    "phoneImage": "https:////storage.googleapis.com/bqcom15.statics.bq.com/prod/images/310_310/b/7/6/2/b762fb44c7bca2b9f832f0fb263265336d5fe758.jpg",
    "phoneROMLinks": [
      "https://storage.googleapis.com/support-files.bq.com/BQ%20Firmware%20Flash%20Tool%205-Customer.zip",
      "https://storage.googleapis.com/otas/2017/Smartphones/Aquaris_U2_Lite/1.20.0/1.20.0_20191111-0941-yamchalite-user-1796-Fastboot-FW.zip",
      "https://storage.googleapis.com/otas/2017/Smartphones/Aquaris_U2_Lite/1.19.0/1.19.0_20190722-1346-yamchalite-user-1780-Fastboot-FW.zip",
      "https://storage.googleapis.com/otas/2017/Smartphones/Aquaris_U2_Lite/1.18.0/1.18.0_20190621-1454-yamchalite-user-1771-Fastboot-FW.zip",
      "https://storage.googleapis.com/otas/2017/Smartphones/Aquaris_U2_Lite/1.17/1.17.0_20190314-1653-yamchalite-user-1758-Fastboot-FW.zip",
      "https://storage.googleapis.com/otas/2017/Smartphones/Aquaris_U2_Lite/1.16.0/1.16.0_20190109-1424-yamchalite-user-1744-Fastboot-FW.zip",
      "https://storage.googleapis.com/otas/2017/Smartphones/Aquaris_U2_Lite/1.15.0/1.15.0_20181211-1726-yamchalite-user-1732-Fastboot-FW.zip",
      "https://storage.googleapis.com/otas/2017/Smartphones/Aquaris_U2_Lite/1.14.0/1.14.0_20180829-1717-yamchalite-user-1515-Fastboot-FW.zip",
      "https://storage.googleapis.com/otas/2017/Smartphones/Aquaris_U2_Lite/1.13.0/1.13.0_20180605-1822-yamchalite-user-1236-Fastboot-FW.zip",
      "https://storage.googleapis.com/otas/2017/Smartphones/Aquaris_U2_Lite/1.11.3/1.11.3_20180413-1401-yamchalite-user-1013-Fastboot-FW.zip",
      "https://storage.googleapis.com/otas/2017/Smartphones/Aquaris_U2_Lite/1.11.1/1.11.1_20180228-1402-yamchalite-user-760-Fastboot-FW.zip",
      "https://storage.googleapis.com/otas/2017/Smartphones/Aquaris_U2_Lite/1.10.1/1.10.1_20180206-1817-yamchalite-user-627-Fastboot-FW.zip",
      "https://storage.googleapis.com/otas/2017/Smartphones/Aquaris_U2_Lite/1.9.0/1.9.0_20171201-0917-yamchalite-user-367-Fastboot-FW.zip",
      "https://storage.googleapis.com/otas/2017/Smartphones/Aquaris_U2_Lite/1.7.0/1.7.0_20171009-1522-yamchalite-user-151-Fastboot-FW.zip",
      "https://storage.googleapis.com/support-files.bq.com/Fondos_pantalla_Aquaris_U2_Lite.zip"
    ]
  },
  {
    "phoneName": "AQUARIS X5 PLUS",
    "phoneLink": "https://www.bq.com/en/support/aquaris-x5-plus/support-sheet",
    "phoneImage": "https:////storage.googleapis.com/bqcom15.statics.bq.com/prod/images/310_310/6/7/a/d/67ad2f4be52cca13f3830f6793d466bbdf2fa3a5.jpg",
    "phoneROMLinks": [
      "https://storage.googleapis.com/support-files.bq.com/BQ%20Firmware%20Flash%20Tool%205-Customer.zip",
      "https://storage.googleapis.com/otas/2016/SMARTPHONES/X5_Plus/BQ/2.7.0/2.7.0_20181002-1711-gohan-user-684-Fastboot-FW.zip",
      "https://storage.googleapis.com/otas/2016/SMARTPHONES/X5_Plus/BQ/2.6.0/2.6.0_20180628-1433-gohan-user-676-Fastboot-FW.zip",
      "https://storage.googleapis.com/otas/2016/SMARTPHONES/X5_Plus/BQ/2.5.1/2.5.1_20180424-1741-gohan-user-660-Fastboot-FW.zip",
      "https://storage.googleapis.com/otas/2016/SMARTPHONES/X5_Plus/BQ/2.5.0/2.5.0_20180321-1225-gohan-user-658-Fastboot-FW.zip",
      "https://storage.googleapis.com/otas/2016/SMARTPHONES/X5_Plus/BQ/2.4.0/2.4.0_20180205-0815-gohan-user-654-Fastboot-FW.zip",
      "https://storage.googleapis.com/otas/2016/SMARTPHONES/X5_Plus/BQ/2.3.0/2.3.0_20171113-1452-gohan-user-640-Fastboot-FW.zip",
      "https://storage.googleapis.com/otas/2016/SMARTPHONES/X5_Plus/BQ/2.2.0/2.2.0_20170828-1530-gohan-user-613-Fastboot-FW.zip",
      "https://storage.googleapis.com/otas/2016/SMARTPHONES/X5_Plus/BQ/2.1.0/2.1.0_20170609-1350-gohan-user-518-Fastboot-FW%20(1).zip"
    ]
  },
  {
    "phoneName": "AQUARIS U PLUS",
    "phoneLink": "https://www.bq.com/en/support/aquaris-u-plus/support-sheet",
    "phoneImage": "https:////storage.googleapis.com/bqcom15.statics.bq.com/prod/images/310_310/0/5/7/b/057bcaee9d25e8338e7c38897c2b2d8f27131aac.jpg",
    "phoneROMLinks": [
      "https://storage.googleapis.com/support-files.bq.com/BQ%20Firmware%20Flash%20Tool%205-Customer.zip",
      "https://storage.googleapis.com/otas/2016/SMARTPHONES/U_Plus/MP/Android_N/2.9.0/2.9.0_20180924-2129-tenshi-user-1106-Fastboot-FW.zip",
      "https://storage.googleapis.com/otas/2016/SMARTPHONES/U_Plus/MP/Android_N/2.8.0/2.8.0_20180625-1854-tenshi-user-1091-Fastboot-FW.zip",
      "https://storage.googleapis.com/otas/2016/SMARTPHONES/U_Plus/MP/Android_N/2.7.0/2.7.0_20180416-1107-tenshi-user-1058-Fastboot-FW.zip",
      "https://storage.googleapis.com/otas/2016/SMARTPHONES/U_Plus/MP/Android_N/2.6.0/2.6.0_20180227-1119-tenshi-user-1009-Fastboot-FW.zip",
      "https://storage.googleapis.com/otas/2016/SMARTPHONES/U_Plus/MP/Android_N/2.5.0/2.5.0_20171219-1539-tenshi-user-944-Fastboot-FW.zip",
      "https://storage.googleapis.com/otas/2016/SMARTPHONES/U_Plus/MP/Android_N/2.4.3/2.4.3_20171027-1300-tenshi-user-868-Fastboot-FW.zip",
      "https://storage.googleapis.com/otas/2016/SMARTPHONES/U_Plus/MP/Android_N/2.3.3/2.3.3_20170831-1536-tenshi-user-794-Fastboot-FW.zip",
      "https://storage.googleapis.com/otas/2016/SMARTPHONES/U_Plus/MP/Android_N/2.3.2_TP(official)/2.3.2_20170803-1245-tenshi-user-760-Fastboot-FW.zip",
      "https://storage.googleapis.com/otas/2016/SMARTPHONES/U_Plus/MP/Android_N/2.3.0/2.3.0_20170718-1614-tenshi-user-732-Fastboot-FW.zip",
      "https://storage.googleapis.com/otas/2016/SMARTPHONES/U_Plus/MP/Android_N/2.2.0/2.2.0_20170615-1319-tenshi-user-674-Fastboot-FW.zip",
      "https://storage.googleapis.com/support-files.bq.com/Aquaris_U_Plus/Aquaris_U_Plus_Wallpaper.zip"
    ]
  },
  {
    "phoneName": "AQUARIS U",
    "phoneLink": "https://www.bq.com/en/support/aquaris-u/support-sheet",
    "phoneImage": "https:////storage.googleapis.com/bqcom15.statics.bq.com/prod/images/310_310/f/a/c/5/fac53f9dfc1b763347bfcadaec6d41535cd8067c.jpg",
    "phoneROMLinks": [
      "https://storage.googleapis.com/support-files.bq.com/BQ%20Firmware%20Flash%20Tool%205-Customer.zip",
      "https://storage.googleapis.com/otas/2016/SMARTPHONES/U/Official%20versions/2.9.0/2.9.0_20180924-2130-chaozu-user-1107-Fastboot-FW.zip",
      "https://storage.googleapis.com/otas/2016/SMARTPHONES/U/Official%20versions/2.8.0/2.8.0_20180625-1855-chaozu-user-1092-Fastboot-FW.zip",
      "https://storage.googleapis.com/otas/2016/SMARTPHONES/U/Official%20versions/2.7.0/2.7.0_20180416-1108-chaozu-user-1059-Fastboot-FW.zip",
      "https://storage.googleapis.com/otas/2016/SMARTPHONES/U/Official%20versions/2.6.0/2.6.0_20180227-1120-chaozu-user-1010-Fastboot-FW.zip",
      "https://storage.googleapis.com/otas/2016/SMARTPHONES/U/2.5.0/2.5.0_20180103-1148-chaozu-user-960-Fastboot-FW.zip",
      "https://storage.googleapis.com/otas/2016/SMARTPHONES/U/Official%20versions/2.4.3/2.4.3_20171027-1302-chaozu-user-869-Fastboot-FW.zip",
      "https://storage.googleapis.com/otas/2016/SMARTPHONES/U/Official%20versions/2.3.3/2.3.3_20170831-1537-chaozu-user-792-Fastboot-FW%20(1).zip",
      "https://storage.googleapis.com/otas/2016/SMARTPHONES/U/Official%20versions/2.3.2_TP(official)/2.3.2_20170803-1250-chaozu-user-761-Fastboot-FW.zip",
      "https://storage.googleapis.com/otas/2016/SMARTPHONES/U/Official%20versions/2.3.0/2.3.0_20170718-1614-chaozu-user-733-Fastboot-FW.zip",
      "https://storage.googleapis.com/otas/2016/SMARTPHONES/U/Official%20versions/2.2.0/2.2.0_20170615-1409-chaozu-user-675-Fastboot-FW.zip",
      "https://storage.googleapis.com/support-files.bq.com/Aquaris_U/Aquaris_U_Wallpaper.zip"
    ]
  },
  {
    "phoneName": "AQUARIS U LITE",
    "phoneLink": "https://www.bq.com/en/support/aquaris-u-lite/support-sheet",
    "phoneImage": "https:////storage.googleapis.com/bqcom15.statics.bq.com/prod/images/310_310/d/8/9/1/d891020794a8f8c7ac512dab679a8bbb228e7ac0.jpg",
    "phoneROMLinks": [
      "https://storage.googleapis.com/support-files.bq.com/BQ%20Firmware%20Flash%20Tool%205-Customer.zip",
      "https://storage.googleapis.com/otas/2016/SMARTPHONES/U_Lite/Android_N/2.9.0/2.9.0_20180924-2131-chaozulite-user-1109-Fastboot-FW.zip",
      "https://storage.googleapis.com/otas/2016/SMARTPHONES/U_Lite/Android_N/2.8.0/2.8.0_20180625-1856-chaozulite-user-1093-Fastboot-FW.zip",
      "https://storage.googleapis.com/otas/2016/SMARTPHONES/U_Lite/Android_N/2.7.0/2.7.0_20180416-1110-chaozulite-user-1060-Fastboot-FW.zip",
      "https://storage.googleapis.com/otas/2016/SMARTPHONES/U_Lite/Android_N/2.6.0/2.6.0_20180227-1121-chaozulite-user-1011-Fastboot-FW.zip",
      "https://storage.googleapis.com/otas/2016/SMARTPHONES/U_Lite/2.5.0/2.5.0_20180103-1148-chaozulite-user-961-Fastboot-FW.zip",
      "https://storage.googleapis.com/otas/2016/SMARTPHONES/U_Lite/Android_N/2.4.3/2.4.3_20171127-1635-chaozulite-user-916-Fastboot-FW.zip",
      "https://storage.googleapis.com/otas/2016/SMARTPHONES/U_Lite/Android_N/2.3.3/2.3.3_20170831-1538-chaozulite-user-791-Fastboot-FW.zip",
      "https://storage.googleapis.com/otas/2016/SMARTPHONES/U_Lite/Android_N/2.3.2_TP(official)/2.3.2_20170803-1255-chaozulite-user-762-Fastboot-FW.zip",
      "https://storage.googleapis.com/otas/2016/SMARTPHONES/U_Lite/Android_N/2.3.0/2.3.0_20170718-1614-chaozulite-user-734-Fastboot-FW.zip",
      "https://storage.googleapis.com/otas/2016/SMARTPHONES/U_Lite/Android_N/2.2.0/2.2.0_20170615-1710-chaozulite-user-676-Fastboot-FW.zip",
      "https://storage.googleapis.com/support-files.bq.com/Aquaris_U/Aquaris_U_Wallpaper.zip"
    ]
  },
  {
    "phoneName": "AQUARIS X5",
    "phoneLink": "https://www.bq.com/en/support/aquaris-x5/support-sheet",
    "phoneImage": "https:////storage.googleapis.com/bqcom15.statics.bq.com/prod/images/310_310/6/d/a/8/6da8aeaad84bdfcf940f9d1e3bcbbd876878f45c.jpg",
    "phoneROMLinks": [
      "https://storage.googleapis.com/support-files.bq.com/BQ%20Firmware%20Flash%20Tool%205-Customer.zip",
      "https://storage.googleapis.com/otas/2015/Smartphones/X5/Android_N/5.2.0_20180228-1305-picmt-user-637-Fastboot-FW.zip",
      "https://storage.googleapis.com/otas/2015/Smartphones/X5/Android_N/5.1.0_20180131-1053-picmt-user-588-Fastboot-FW.zip",
      "https://storage.googleapis.com/otas/2015/Smartphones/X5/Android_N/5.0.0_20171218-2117-picmt-user-478-Fastboot-FW.zip",
      "https://storage.googleapis.com/otas/2015/Smartphones/X5/Android_Marshmallow/7th_OTA_4.9.0/4.9.0_20170721-1355-picmt-user-1852-FW.zip",
      "https://storage.googleapis.com/otas/2015/Smartphones/X5/Android_Marshmallow/6th_OTA_4.8.2/4.8.2_20170605-1722-picmt-user-1845-FW.zip"
    ]
  },
  {
    "phoneName": "AQUARIS M5",
    "phoneLink": "https://www.bq.com/en/support/aquaris-m5/support-sheet",
    "phoneImage": "https:////storage.googleapis.com/bqcom15.statics.bq.com/prod/images/310_310/8/9/3/a/893a8af5d567673fc7e4cc4b447d06a91c3581c7.jpg",
    "phoneROMLinks": [
      "https://storage.googleapis.com/support-files.bq.com/BQ%20Firmware%20Flash%20Tool%205-Customer.zip",
      "https://storage.googleapis.com/otas/2015/Smartphones/M5/Android_N/5.2.0_20180228-1304-piccolo-user-636-Fastboot-FW.zip",
      "https://storage.googleapis.com/otas/2015/Smartphones/M5/Android_N/5.1.0_20180205-1243-piccolo-user-605-Fastboot-FW.zip",
      "https://storage.googleapis.com/otas/2015/Smartphones/M5/Android_N/5.0.0_20171228-1707-piccolo-user-513-Fastboot-FW.zip"
    ]
  },
  {
    "phoneName": "AQUARIS E5 4G",
    "phoneLink": "https://www.bq.com/en/support/aquaris-e5-4g/support-sheet",
    "phoneImage": "https:////storage.googleapis.com/bqcom15.statics.bq.com/prod/images/310_310/8/b/5/b/8b5b7ca7e61970b3356d61aab4edf116486feb10.jpg",
    "phoneROMLinks": [
      "https://storage.googleapis.com/support-files.bq.com/BQ%20Firmware%20Flash%20Tool%205-Customer.zip",
      "https://storage.googleapis.com/otas/2015/Smartphones/E5s_M/Android_Marshmallow/4.8.2/4.8.2_20170605-1614-vegetalte-user-1843-FW.zip",
      "https://storage.googleapis.com/support-files.bq.com/BQ%20Firmware%20Flash%20Tool%205-Customer.zip",
      "https://storage.googleapis.com/otas/2015/Smartphones/E5s_M/Android_Marshmallow/4.8.2/4.8.2_20170605-1614-vegetalte-user-1843-FW.zip",
      "https://storage.googleapis.com/support-files.bq.com/BQ%20Firmware%20Flash%20Tool%205-Customer.zip",
      "https://storage.googleapis.com/otas/2015/Smartphones/E5s_M/Android_Marshmallow/4.8.2/4.8.2_20170605-1614-vegetalte-user-1843-FW.zip"
    ]
  },
  {
    "phoneName": "AQUARIS E5 S",
    "phoneLink": "https://www.bq.com/en/support/aquaris-e5-s/support-sheet",
    "phoneImage": "https:////storage.googleapis.com/bqcom15.statics.bq.com/prod/images/310_310/b/9/7/f/b97f16344386c1f2f77b90df26acd25781081c5a.jpg",
    "phoneROMLinks": [
      "https://storage.googleapis.com/support-files.bq.com/BQ%20Firmware%20Flash%20Tool%205-Customer.zip",
      "https://storage.googleapis.com/otas/2015/Smartphones/E5s_M/Android_Marshmallow/4.8.2/4.8.2_20170605-1614-vegetalte-user-1843-FW.zip"
    ]
  },
  {
    "phoneName": "CYANOGEN EDITION",
    "phoneLink": "https://www.bq.com/en/support/cyanogen-edition/support-sheet",
    "phoneImage": "https:////storage.googleapis.com/bqcom15.statics.bq.com/prod/images/310_310/4/b/7/1/4b71a8e54971c33fa097aac81a767f55e1254099.jpg",
    "phoneROMLinks": [
      "https://storage.googleapis.com/support-files.bq.com/BQ%20Firmware%20Flash%20Tool%205-Customer.zip",
      "https://storage.googleapis.com/support-files.bq.com/Bootloader/Cyanogen%20OS/cm-13.1.4-ZNH2KAS5FE-paella-signed-fastboot-a6851b4fbe.zip",
      "https://storage.googleapis.com/support-files.bq.com/Bootloader/Cyanogen%20OS/cm-12.1-YOG4PAS9OI-paella-signed-fastboot-08a5c4b830.zip"
    ]
  },
  {
    "phoneName": "AQUARIS M 55",
    "phoneLink": "https://www.bq.com/en/support/aquaris-m-55/support-sheet",
    "phoneImage": "https:////storage.googleapis.com/bqcom15.statics.bq.com/prod/images/310_310/4/5/9/a/459aff9d0b8d891d2429e32a4a68446283b12a3c.jpg",
    "phoneROMLinks": [
      "https://storage.googleapis.com/support-files.bq.com/BQ%20Firmware%20Flash%20Tool%205-Customer.zip",
      "https://storage.googleapis.com/otas/2015/Smartphones/M5.5/Android_N/5.2.0_20180228-1302-Aquaris_M55-user-634-Fastboot-FW.zip",
      "https://storage.googleapis.com/otas/2015/Smartphones/M5.5/Android_N/5.1.0_20180131-1153-Aquaris_M55-user-590-Fastboot-FW.zip",
      "https://storage.googleapis.com/otas/2015/Smartphones/M5.5/AndroidM/2.7.0/2.7.0_20171020-0812-namek-879_fastbootdownload-FW.zip",
      "https://storage.googleapis.com/otas/2015/Smartphones/M5.5/AndroidM/2.6.0/2.6.0_20170616-1350-namek-862_fastbootdownload-FW.zip"
    ]
  },
  {
    "phoneName": "AQUARIS M4 5",
    "phoneLink": "https://www.bq.com/en/support/aquaris-m4-5/support-sheet",
    "phoneImage": "https:////storage.googleapis.com/bqcom15.statics.bq.com/prod/images/310_310/f/8/2/5/f8250e3affa75374013b7b3a97a089d6383f0e6c.jpg",
    "phoneROMLinks": [
      "https://storage.googleapis.com/otas/2015/Smartphones/M4.5/2.3.0_official/2.3.0_20170919-1844-6735m-m-v2-FW.zip",
      "https://storage.googleapis.com/otas/2015/Smartphones/M4.5/2.2.0_Official/2.2.0_20170614-1439-6735m-m-v2-FW.zip"
    ]
  }
]